…
for (term in terms) {
  print(paste("Term: ", term))
  kwd_x_match %>%
    filter(map_lgl(kwd_x_match$text_matches, ~str_detect(.x, fixed(term)))) %>%
    group_by(keywords) %>%
    summarize(n = n()) %>%
    arrange(desc(n)) %>%
    print()
}
```

    ## [1] "Term:  field work"
    ## # A tibble: 956 x 2
    ##    keywords         n
    ##    <chr>        <int>
    ##  1 India            6
    ##  2 Malaria          6
    ##  3 Bangladesh       5
    ##  4 Kenya            5
    ##  5 taxonomy         4
    ##  6 Africa           3
    ##  7 epidemiology     3
    ##  8 Epidemiology     3
    ##  9 HIV              3
    ## 10 rural            3
    ## # … with 946 more rows
    ## [1] "Term:  fieldwork"
    ## # A tibble: 1,482 x 2
    ##    keywords                 n
    ##    <chr>                <int>
    ##  1 South Africa            11
    ##  2 HIV                     10
    ##  3 Africa                   6
    ##  4 taxonomy                 6
    ##  5 Malaria                  5
    ##  6 Malawi                   5
    ##  7 Adolescents              4
    ##  8 Nepal                    4
    ##  9 obesity                  4
    ## 10 qualitative research     4
    ## # … with 1,472 more rows
    ## [1] "Term:  field study"
    ## # A tibble: 715 x 2
    ##    keywords            n
    ##    <chr>           <int>
    ##  1 Epidemiology        4
    ##  2 Malaria             3
    ##  3 yield               3
    ##  4 Attitude            2
    ##  5 biomass             2
    ##  6 Cattle              2
    ##  7 Chiroptera          2
    ##  8 Control             2
    ##  9 Disability          2
    ## 10 Drug resistance     2
    ## # … with 705 more rows
    ## [1] "Term:  field site"
    ## # A tibble: 518 x 2
    ##    keywords             n
    ##    <chr>            <int>
    ##  1 Malaria              4
    ##  2 Bangladesh           3
    ##  3 African American     2
    ##  4 Allometry            2
    ##  5 bacteria             2
    ##  6 cause of death       2
    ##  7 climate change       2
    ##  8 HIV                  2
    ##  9 HIV/AIDS             2
    ## 10 invasive species     2
    ## # … with 508 more rows
    ## [1] "Term:  field area"
    ## # A tibble: 187 x 2
    ##    keywords                   n
    ##    <chr>                  <int>
    ##  1 Cancer                     2
    ##  2 Acceleration               1
    ##  3 Accretion and deletion     1
    ##  4 Aedes albopictus           1
    ##  5 alternating tapping        1
    ##  6 Angiogenesis               1
    ##  7 Antimetabolites            1
    ##  8 Antioxidants               1
    ##  9 apoptosis                  1
    ## 10 Archaea                    1
    ## # … with 177 more rows
    ## [1] "Term:  study site"
    ## # A tibble: 4,232 x 2
    ##    keywords                  n
    ##    <chr>                 <int>
    ##  1 Malaria                  30
    ##  2 HIV                      29
    ##  3 Plasmodium falciparum    17
    ##  4 Kenya                    16
    ##  5 Ethiopia                 14
    ##  6 Pregnancy                12
    ##  7 South Africa             12
    ##  8 Children                 10
    ##  9 epidemiology             10
    ## 10 India                    10
    ## # … with 4,222 more rows
    ## [1] "Term:  study location"
    ## # A tibble: 619 x 2
    ##    keywords                       n
    ##    <chr>                      <int>
    ##  1 meta-analysis                  8
    ##  2 Meta-analysis                  7
    ##  3 Epidemiology                   3
    ##  4 Iran                           3
    ##  5 Malaria                        3
    ##  6 Prevalence                     3
    ##  7 Review                         3
    ##  8 Systematic review              3
    ##  9 Activities of daily living     2
    ## 10 Biological control             2
    ## # … with 609 more rows
    ## [1] "Term:  study area"
    ## # A tibble: 4,279 x 2
    ##    keywords                  n
    ##    <chr>                 <int>
    ##  1 Malaria                  39
    ##  2 Ethiopia                 37
    ##  3 epidemiology             18
    ##  4 Epidemiology             17
    ##  5 Iran                     17
    ##  6 Plasmodium falciparum    16
    ##  7 India                    15
    ##  8 malaria                  14
    ##  9 Prevalence               13
    ## 10 Tanzania                 13
    ## # … with 4,269 more rows
    ## [1] "Term:  research site"
    ## # A tibble: 428 x 2
    ##    keywords                            n
    ##    <chr>                           <int>
    ##  1 Africa                              2
    ##  2 Case study                          2
    ##  3 expectations                        2
    ##  4 International clinical research     2
    ##  5 Mental health                       2
    ##  6 Mortality                           2
    ##  7 Obesity                             2
    ##  8 Pilot study                         2
    ##  9 qualitative research                2
    ## 10 Quality of life                     2
    ## # … with 418 more rows
    ## [1] "Term:  research location"
    ## # A tibble: 57 x 2
    ##    keywords                 n
    ##    <chr>                <int>
    ##  1 indoor air pollution     2
    ##  2 particulate matter       2
    ##  3 PM2.5                    2
    ##  4 adolescent               1
    ##  5 Aged                     1
    ##  6 Aged, 80 and Over        1
    ##  7 Allied health            1
    ##  8 Androgenic alopecia      1
    ##  9 biomass fuels            1
    ## 10 Caregivers               1
    ## # … with 47 more rows
    ## [1] "Term:  sampling site"
    ## # A tibble: 1,555 x 2
    ##    keywords                     n
    ##    <chr>                    <int>
    ##  1 Genetic diversity            5
    ##  2 phylogeography               5
    ##  3 16S rRNA                     4
    ##  4 bacteria                     4
    ##  5 dispersal                    4
    ##  6 Genetic structure            4
    ##  7 microbial community          4
    ##  8 16S rRNA gene                3
    ##  9 16S rRNA gene sequencing     3
    ## 10 Atacama Desert               3
    ## # … with 1,545 more rows
    ## [1] "Term:  sampling location"
    ## # A tibble: 939 x 2
    ##    keywords                      n
    ##    <chr>                     <int>
    ##  1 Population genetics           5
    ##  2 Genetic diversity             4
    ##  3 phylogeography                4
    ##  4 16S rRNA gene                 3
    ##  5 adaptation                    3
    ##  6 Cryptic species               3
    ##  7 Effective population size     3
    ##  8 metagenomics                  3
    ##  9 population genetics           3
    ## 10 population structure          3
    ## # … with 929 more rows
    ## [1] "Term:  sampling area"
    ## # A tibble: 525 x 2
    ##    keywords                                          n
    ##    <chr>                                         <int>
    ##  1 abundance                                         2
    ##  2 bacteria                                          2
    ##  3 hybridization                                     2
    ##  4 PM2.5                                             2
    ##  5 Population genetics                               2
    ##  6 remote sensing                                    2
    ##  7 taxonomy                                          2
    ##  8 (100.2000) Digital image processing               1
    ##  9 (100.6890) Three-dimensional image processing     1
    ## 10 (110.4500) Optical coherence tomography           1
    ## # … with 515 more rows
…
